<?xml version="1.0" encoding="UTF-8"?>
<svg width="34px" height="13px" viewBox="0 0 34 13" version="1.1" xmlns="http://www.w3.org/2000/svg" xmlns:xlink="http://www.w3.org/1999/xlink">
    <!-- Generator: Sketch 49 (51002) - http://www.bohemiancoding.com/sketch -->
    <title>2030</title>
    <desc>Created with Sketch.</desc>
    <defs></defs>
    <g id="Ortho2" stroke="none" stroke-width="1" fill="none" fill-rule="evenodd" font-family="ProximaNova-Semibold, Proxima Nova" font-size="16" font-weight="500">
        <g id="Ortho-V3-Dashboard---Button-Pressed" transform="translate(-53.000000, -964.000000)" fill="#454551">
            <g id="Timeline" transform="translate(-13.000000, 702.000000)">
                <text id="2030">
                    <tspan x="66" y="274">2021</tspan>
                </text>
            </g>
        </g>
    </g>
</svg>