<?xml version="1.0" encoding="UTF-8"?>
<svg width="95px" height="137px" viewBox="0 0 95 274" version="1.1" xmlns="http://www.w3.org/2000/svg" xmlns:xlink="http://www.w3.org/1999/xlink">
    <!-- Generator: Sketch 49 (51002) - http://www.bohemiancoding.com/sketch -->
    <title>Date</title>
    <desc>Created with Sketch.</desc>
    <defs>
        <path d="M41.5,131 C64.4198171,131 83,112.836005 83,90.4295814 C83,75.4919658 69.1666667,45.3487719 41.5,0 C13.8333333,45.3487719 0,75.4919658 0,90.4295814 C0,112.836005 18.5801829,131 41.5,131 Z" id="path-1"></path>
        <filter x="-11.4%" y="-6.5%" width="122.9%" height="114.5%" filterUnits="objectBoundingBox" id="filter-2">
            <feOffset dx="0" dy="1" in="SourceAlpha" result="shadowOffsetOuter1"></feOffset>
            <feGaussianBlur stdDeviation="3" in="shadowOffsetOuter1" result="shadowBlurOuter1"></feGaussianBlur>
            <feColorMatrix values="0 0 0 0 0   0 0 0 0 0   0 0 0 0 0  0 0 0 0.2 0" type="matrix" in="shadowBlurOuter1"></feColorMatrix>
        </filter>
    </defs>
    <g id="Ortho2" stroke="none" stroke-width="1" fill="none" fill-rule="evenodd">
        <g id="Ortho-V3-Dashboard---Button-Pressed" transform="translate(-605.000000, -887.000000)">
            <g id="Timeline" transform="translate(-13.000000, 702.000000)">
                <g id="Date" transform="translate(624.000000, 192.000000)">
                    <g id="Birthday_icon">
                        <g id="Oval-2" transform="translate(41.500000, 65.500000) scale(1, -1) translate(-41.500000, -65.500000) ">
                            <use fill="black" fill-opacity="1" filter="url(#filter-2)" xlink:href="#path-1"></use>
                            <use fill="#4349DF" fill-rule="evenodd" xlink:href="#path-1"></use>
                        </g>
                    </g>
                    <text id="48" font-family="ProximaNova-Bold, Proxima Nova" font-size="30" font-weight="bold" fill="#FFFFFF">
                        <tspan x="23.955" y="50">48</tspan>
                    </text>
                    <text id="Months" font-family="ProximaNova-Medium, Proxima Nova" font-size="14" font-weight="400" fill="#FFFFFF">
                        <tspan x="18.491" y="67">Months</tspan>
                    </text>
                </g>
            </g>
        </g>
    </g>
</svg>